<?xml version="1.0" encoding="utf-8"?>
<!-- Generator: Adobe Illustrator 21.0.2, SVG Export Plug-In . SVG Version: 6.00 Build 0)  -->
<svg version="1.1" id="Layer_1" xmlns="http://www.w3.org/2000/svg" xmlns:xlink="http://www.w3.org/1999/xlink" x="0px" y="0px"
	 viewBox="0 0 300 300" style="enable-background:new 0 0 300 300;" xml:space="preserve">
<style type="text/css">
	.st0{fill:#FFFFFF;}
	.st1{fill:#2E3136;}
	.st2{fill:#4774A9;}
</style>
<g>
	<g>
		<g>
			<path class="st0" d="M222.1,45.1c-22.3-13-28.1-13.5-59.3-5.3c-4.7,1.2-8.8,2-12.5,2.4c-3.7-0.4-7.9-1.1-12.5-2.4
				c-31.2-8.2-37-7.7-59.3,5.3c-19.6,10.3-30.8,40.1-25.2,73.6c6.5,38.7,21.4,41.4,21.4,83.4c0,41.7,15.1,62.6,27.3,62.6
				c12.2,0,18.3-14.3,31.7-50.1c9.2-24.5,22.7-28.4,33.4,0c13.4,35.8,19.5,50.1,31.7,50.1c12.2,0,27.3-20.8,27.3-62.6
				c0-41.9,14.9-44.3,21.4-83.4C252.9,85.2,241.7,55.4,222.1,45.1z"/>
		</g>
		<g>
			<path class="st1" d="M198.6,271.7c-17.7,0-25-19.4-38.1-54.5c-4.7-12.6-9-15.4-10.1-15.4c-1.2,0-5.6,2.8-10.3,15.4
				c-13.1,35.2-20.4,54.5-38.1,54.5c-17,0-34.2-23.9-34.2-69.5c0-22.5-4.5-32.8-9.7-44.7c-4.1-9.4-8.7-20.1-11.7-37.6
				C40.5,84.3,52.3,51.1,75.2,39c13.3-7.8,21.8-11.5,33-11.5c8.2,0,17.3,2,31.3,5.7c3.8,1,7.3,1.7,10.8,2.1c3.4-0.4,7-1.1,10.8-2.1
				c14-3.7,23.1-5.7,31.3-5.7c11.2,0,19.7,3.8,33.3,11.7c22.6,11.9,34.5,45.2,28.5,80.8c-3,17.7-7.6,28.5-11.7,37.9
				c-5.1,11.8-9.6,22-9.6,44.4C232.8,247.8,215.6,271.7,198.6,271.7z M150.4,187.9c9.3,0,17,8.2,23.1,24.4
				c11.8,31.7,17.8,45.6,25.2,45.6c6.9,0,20.4-16.8,20.4-55.7c0-25.2,5.2-37.2,10.7-49.9c4-9.1,8.1-18.6,10.8-34.7
				c4.9-29.3-4.2-57.2-21.6-66.4c-12.1-7-18.4-9.9-26.6-9.9c-6.6,0-15.2,1.9-27.8,5.2c-4.8,1.2-9.2,2.1-13.5,2.5l-0.7,0.1l-0.7-0.1
				c-4.4-0.5-8.8-1.3-13.5-2.5c-12.6-3.3-21.2-5.2-27.8-5.2c-8.2,0-14.4,2.9-26.3,9.8C64.2,60.4,55.1,88.3,60,117.6
				c2.6,15.8,6.7,25.2,10.7,34.4c5.6,12.8,10.8,24.8,10.8,50.2c0,38.9,13.5,55.7,20.4,55.7c7.4,0,13.4-13.9,25.2-45.6
				C134.6,192.1,143.9,187.9,150.4,187.9z"/>
		</g>
	</g>
	<g>
		<path class="st1" d="M298.1,127.5H2.5c-1.2,0-2.2-1-2.2-2.2l0-10.8c0-1.2,1-2.2,2.2-2.2h295.6c1.2,0,2.2,1,2.2,2.2v10.8
			C300.3,126.5,299.3,127.5,298.1,127.5z"/>
	</g>
	<g>
		<path class="st2" d="M199.7,149.6h-98.9c-3,0-5.4-2.4-5.4-5.4V95.7c0-3,2.4-5.4,5.4-5.4h98.9c3,0,5.4,2.4,5.4,5.4v48.4
			C205.2,147.1,202.7,149.6,199.7,149.6z"/>
		<path class="st1" d="M186.4,154.8h-72.2c-13.2,0-24-10.8-24-24v-21.7c0-13.2,10.8-24,24-24h72.2c13.2,0,24,10.8,24,24v21.7
			C210.4,144,199.6,154.8,186.4,154.8z M114.2,95.4c-7.5,0-13.6,6.1-13.6,13.6v21.7c0,7.5,6.1,13.6,13.6,13.6h72.2
			c7.5,0,13.6-6.1,13.6-13.6v-21.7c0-7.5-6.1-13.6-13.6-13.6H114.2z"/>
	</g>
</g>
</svg>
