<?xml version="1.0" encoding="utf-8"?>
<!-- Generator: Adobe Illustrator 21.0.2, SVG Export Plug-In . SVG Version: 6.00 Build 0)  -->
<svg version="1.1" id="Layer_1" xmlns="http://www.w3.org/2000/svg" xmlns:xlink="http://www.w3.org/1999/xlink" x="0px" y="0px"
	 viewBox="0 0 300 300" style="enable-background:new 0 0 300 300;" xml:space="preserve">
<style type="text/css">
	.st0{fill:#7FACD8;}
	.st1{fill:#2E3136;}
	.st2{fill:#FFFFFF;}
</style>
<g>
	<g>
		<ellipse class="st0" cx="149.8" cy="135" rx="109.1" ry="109.1"/>
	</g>
	<g>
		<g>
			<g>
				<g>
					<rect x="267.2" y="122.9" class="st1" width="32.6" height="12"/>
				</g>
			</g>
			<g>
				<g>
					
						<rect x="255.7" y="58.4" transform="matrix(0.9397 -0.342 0.342 0.9397 -5.6313 96.9279)" class="st1" width="32.6" height="12"/>
				</g>
			</g>
			<g>
				<g>
					
						<rect x="266.3" y="177.1" transform="matrix(0.3421 -0.9397 0.9397 0.3421 -2.5898 383.1166)" class="st1" width="12" height="32.6"/>
				</g>
			</g>
			<g>
				<g>
					<rect x="267.2" y="122.9" class="st1" width="32.6" height="12"/>
				</g>
			</g>
		</g>
		<g>
			<g>
				<g>
					<rect x="-0.2" y="122.9" class="st1" width="32.6" height="12"/>
				</g>
			</g>
			<g>
				<g>
					
						<rect x="21.7" y="48.1" transform="matrix(0.3421 -0.9397 0.9397 0.3421 -42.3387 68.3912)" class="st1" width="12" height="32.6"/>
				</g>
			</g>
			<g>
				<g>
					
						<rect x="11.1" y="187.4" transform="matrix(0.9397 -0.342 0.342 0.9397 -64.4988 21.0272)" class="st1" width="32.6" height="12"/>
				</g>
			</g>
			<g>
				<g>
					<rect x="-0.2" y="122.9" class="st1" width="32.6" height="12"/>
				</g>
			</g>
		</g>
	</g>
	<g>
		<g>
			<path class="st2" d="M209.5,86.4C191,75.6,186.1,75.2,160.2,82c-3.9,1-7.3,1.6-10.4,2c-3.1-0.3-6.5-0.9-10.4-2
				c-25.9-6.8-30.7-6.4-49.2,4.4c-16.2,8.6-25.6,33.3-20.9,61.1c5.4,32.2,17.8,34.4,17.8,69.2c0,34.6,12.6,51.9,22.7,51.9
				c10.1,0,15.2-11.9,26.3-41.5c7.6-20.3,18.9-23.6,27.7,0c11.1,29.7,16.2,41.5,26.3,41.5c10.1,0,22.7-17.3,22.7-51.9
				c0-34.7,12.4-36.7,17.8-69.2C235,119.7,225.7,94.9,209.5,86.4z"/>
		</g>
		<g>
			<path class="st1" d="M190,274.6c-14.9,0-20.9-16.1-31.9-45.4c-3.8-10.3-7.3-12.6-8.1-12.6c-0.8,0-4.4,2.1-8.3,12.6
				c-10.9,29.3-17,45.4-31.9,45.4c-14.2,0-28.7-19.9-28.7-57.9c0-18.6-3.7-27.1-8-37c-3.4-7.8-7.3-16.7-9.7-31.3
				c-4.9-29.6,4.9-57.3,24-67.4c11.1-6.5,18.1-9.6,27.5-9.6c6.8,0,14.4,1.7,26,4.7c3.1,0.8,6,1.4,8.9,1.7c2.9-0.3,5.8-0.9,8.9-1.7
				c11.6-3.1,19.2-4.7,26-4.7c9.4,0,16.4,3.1,27.7,9.7c18.9,9.9,28.7,37.7,23.8,67.3c-2.5,14.8-6.3,23.7-9.8,31.5
				c-4.3,9.8-7.9,18.2-7.9,36.7C218.6,254.7,204.2,274.6,190,274.6z M149.9,204.6c7.8,0,14.3,6.9,19.4,20.4
				c9.8,26.2,14.7,37.6,20.7,37.6c5.6,0,16.7-13.9,16.7-45.9c0-21,4.3-30.9,8.9-41.5c3.3-7.6,6.7-15.4,8.9-28.7
				c4-24.2-3.4-47.3-17.8-54.8c-10-5.8-15.2-8.2-21.9-8.2c-5.5,0-12.6,1.6-23,4.3c-3.9,1-7.6,1.7-11.3,2.1l-0.7,0.1l-0.7-0.1
				c-3.7-0.4-7.4-1.1-11.3-2.1c-10.4-2.7-17.5-4.3-23-4.3c-6.7,0-11.9,2.4-21.7,8.1c-14.6,7.7-22.1,30.7-18,54.9
				c2.2,13.1,5.6,20.9,8.9,28.4c4.6,10.6,9,20.7,9,41.8c0,32.1,11,45.9,16.7,45.9c6,0,10.9-11.5,20.7-37.6
				C136.7,208.2,144.5,204.6,149.9,204.6z"/>
		</g>
	</g>
	<g>
		<g>
			<g>
				<rect x="97.3" y="103.3" class="st1" width="22.4" height="12"/>
			</g>
		</g>
		<g>
			<g>
				<rect x="179.9" y="103.3" class="st1" width="22.4" height="12"/>
			</g>
		</g>
		<g>
			<g>
				<path class="st1" d="M150.6,192.8c-26.5,0-48.3-23.3-49.5-53.1l-0.3-6.2h99.4l-0.3,6.2C198.9,169.4,177.1,192.8,150.6,192.8z
					 M113.8,145.4c3.3,20.3,18.6,35.4,36.9,35.4c18.3,0,33.5-15.1,36.9-35.4H113.8z"/>
			</g>
		</g>
	</g>
</g>
</svg>
