<?xml version="1.0" encoding="utf-8"?>
<!-- Generator: Adobe Illustrator 21.0.2, SVG Export Plug-In . SVG Version: 6.00 Build 0)  -->
<svg version="1.1" id="Layer_1" xmlns="http://www.w3.org/2000/svg" xmlns:xlink="http://www.w3.org/1999/xlink" x="0px" y="0px"
	 viewBox="0 0 300 300" style="enable-background:new 0 0 300 300;" xml:space="preserve">
<style type="text/css">
	.st0{fill:#FFFFFF;}
	.st1{fill:#2E3136;}
	.st2{fill:#7FACD8;}
</style>
<g>
	<g>
		<g>
			<path class="st0" d="M28.2,299.8v-42.5c0-18.8,17.2-34,38.4-34h168.6c21.2,0,38.4,15.2,38.4,34v42.5H28.2z"/>
		</g>
		<g>
			<path class="st1" d="M279.9,299.8h-12.7v-42.5c0-15.2-14.4-27.7-32.1-27.7H66.6c-17.7,0-32.1,12.4-32.1,27.7v42.5H21.8v-42.5
				c0-22.2,20.1-40.3,44.8-40.3h168.6c24.7,0,44.8,18.1,44.8,40.3V299.8z"/>
		</g>
	</g>
	<g>
		<g>
			<polygon class="st0" points="183.1,223.7 150.9,242.3 118.6,223.7 118.6,153.2 150.9,153.2 183.1,153.2 			"/>
		</g>
		<g>
			<path class="st1" d="M150.9,249.7l-38.6-22.3l0-80.5h77.2l0,80.5L150.9,249.7z M124.9,220l25.9,15l25.9-15l0-60.5h-51.9
				L124.9,220z"/>
		</g>
	</g>
	<g>
		<g>
			<path class="st0" d="M226.8,132c0,41.7-33.8,75.5-75.5,75.5l0,0c-41.7,0-75.5-33.8-75.5-75.5V66.5c0-41.7,33.8-38.6,75.5-38.6
				l0,0c41.7,0,75.5-3.1,75.5,38.6V132z"/>
		</g>
		<g>
			<path class="st1" d="M151.4,213.8c-45.1,0-81.8-36.7-81.8-81.8V66.5c0-45,36.6-45,66-45c2.5,0,5.1,0,7.7,0c5.3,0,10.9,0,16.3,0
				c2.6,0,5.2,0,7.7,0c29.4,0,66,0,66,45V132C233.2,177.1,196.5,213.8,151.4,213.8z M135.5,34.2c-36.2,0-53.3,3.2-53.3,32.3V132
				c0,38.1,31,69.1,69.1,69.1c38.1,0,69.1-31,69.1-69.1V66.5c0-29.1-17.1-32.3-53.3-32.3c-2.5,0-5.1,0-7.6,0c-5.4,0-11,0-16.4,0
				C140.6,34.2,138,34.2,135.5,34.2z"/>
		</g>
	</g>
	<g>
		<g>
			<g>
				<rect x="112.7" y="104.6" class="st1" width="13.8" height="12.7"/>
			</g>
		</g>
		<g>
			<g>
				<rect x="176.2" y="104.6" class="st1" width="13.8" height="12.7"/>
			</g>
		</g>
	</g>
	<g>
		<path class="st2" d="M218.1,17.4v-4.9c0-7-5.6-12.7-12.4-12.7H97.1c-6.9,0-12.4,5.7-12.4,12.7v4.9c-14.2,0.5-25.6,12.4-25.6,27
			l6.3,88.9L77.7,146c0,0,5.6-71.5,13.3-94.9l60.4,11.1l60.4-11.1C219.4,74.5,225,146,225,146l12.3-12.7l6.3-88.9
			C243.7,29.8,232.3,17.9,218.1,17.4z"/>
	</g>
	<g>
		<g>
			<path class="st0" d="M83.8,104.7c-7.5,0-20.2,4.4-20.8,11.2l-2.1,24c-0.6,6.8,11.1,13.3,18.5,14.7l2.8-20.5L83.8,104.7z"/>
		</g>
		<g>
			<path class="st1" d="M84.7,162l-6.5-1.2c-8.5-1.5-24.7-9.7-23.7-21.5l2.1-24c1-11.8,18.4-17,27.1-17l0,12.7
				c-6.2,0-13.8,3.6-14.5,5.5l-2.1,23.9c0.2,1.3,3.2,3.7,6.9,5.6l1.8-12.9l12.6,1.7L84.7,162z"/>
		</g>
	</g>
	<g>
		<g>
			<path class="st0" d="M217.9,104.7c7.5,0,20.2,4.4,20.8,11.2l2.1,24c0.6,6.8-11.1,13.3-18.5,14.7l-2.8-20.5L217.9,104.7z"/>
		</g>
		<g>
			<path class="st1" d="M217,162l-3.7-27.1l12.6-1.7l1.8,12.8c3.7-1.9,6.7-4.4,6.9-5.7l-2.1-23.9c-0.7-1.9-8.3-5.4-14.5-5.4l0-12.7
				c8.6,0,26,5.2,27.1,17l2.1,24c1.1,11.8-15.2,20-23.7,21.5L217,162z"/>
		</g>
	</g>
	<g>
		<rect x="121.1" y="72.8" class="st1" width="65.3" height="4.7"/>
	</g>
	<g>
		<rect x="121.1" y="80.3" class="st1" width="65.3" height="4.7"/>
	</g>
	<g>
		
			<rect x="112.6" y="168" transform="matrix(0.311 -0.9504 0.9504 0.311 -73.7861 239.0116)" class="st1" width="30.7" height="4.7"/>
	</g>
	<g>
		
			<rect x="172.7" y="155" transform="matrix(0.9504 -0.3111 0.3111 0.9504 -44.3187 62.9057)" class="st1" width="4.7" height="30.7"/>
	</g>
	<g>
		<path class="st2" d="M186.2,164.3c-0.8-11.5-10.4-20.6-22.1-20.6h-25.4c-11.7,0-21.3,9.1-22.1,20.6H186.2z"/>
	</g>
	<g>
		<rect x="142.4" y="171.3" class="st1" width="18.2" height="4.7"/>
	</g>
</g>
</svg>
