<?xml version="1.0" encoding="utf-8"?>
<!-- Generator: Adobe Illustrator 21.0.2, SVG Export Plug-In . SVG Version: 6.00 Build 0)  -->
<svg version="1.1" id="Layer_1" xmlns="http://www.w3.org/2000/svg" xmlns:xlink="http://www.w3.org/1999/xlink" x="0px" y="0px"
	 viewBox="0 0 300 300" style="enable-background:new 0 0 300 300;" xml:space="preserve">
<style type="text/css">
	.st0{fill:#FFFFFF;}
	.st1{fill:#2E3136;}
	.st2{fill:#1A2A38;}
</style>
<g>
	<g>
		<g>
			<path class="st0" d="M143,291C91.9,276.1,23.8,246,23.8,157.2V42.5l33.3,5.2c4.2,0.7,8.7,1,13.3,1c6.2,0,12.6-0.6,19-1.8
				c17.1-3.2,32.7-10.3,41.6-19l20.2-19.8l20.2,19.8c8.9,8.7,24.5,15.9,41.6,19c6.4,1.2,12.8,1.8,19,1.8c4.6,0,9.1-0.3,13.3-1
				l33.3-5.2v114.7c0,88.7-68,118.9-119.2,133.8l-8.1,2.4L143,291z"/>
		</g>
		<g>
			<path class="st1" d="M151.1,299.7l-9.8-2.9C88.3,281.3,17.8,250,17.8,157.2V35.5L58,41.7c9.3,1.4,19.8,1.2,30.2-0.8
				c16-3,30.4-9.5,38.5-17.4l24.4-23.9l24.4,23.9C183.6,31.5,198,38,213.9,41c10.5,1.9,21,2.2,30.2,0.8l40.2-6.3v121.8
				c0,92.8-70.5,124.1-123.5,139.6L151.1,299.7z M29.8,49.5v107.7c0,84.7,65.6,113.6,114.9,128l6.4,1.9l6.4-1.9
				c103-30.1,114.9-87.5,114.9-128V49.5L246,53.6c-10.6,1.6-22.5,1.4-34.3-0.8c-18.2-3.4-35-11.1-44.7-20.7l-16-15.6l-16,15.6
				c-9.7,9.5-26.5,17.3-44.7,20.7c-11.8,2.2-23.7,2.5-34.3,0.8L29.8,49.5z"/>
		</g>
	</g>
	<g>
		<path class="st2" d="M148.2,273.4c-93.9-27.4-106-76.5-106-116.2V63.9l12.1,1.9c5.1,0.8,10.6,1.2,16.1,1.2
			c7.3,0,14.8-0.7,22.3-2.1c20.9-3.9,39.5-12.6,51.1-24l7.3-7.2l7.3,7.2c11.6,11.3,30.2,20.1,51.1,24c7.5,1.4,15,2.1,22.3,2.1
			c5.5,0,11-0.4,16.1-1.2l12.1-1.9v93.3c0,75.6-56.6,101.8-106,116.2l-2.9,0.9L148.2,273.4z"/>
	</g>
	<g>
		<g>
			<path class="st0" d="M194.3,96.3c-13.4-7.8-16.9-8.1-35.7-3.2c-2.8,0.7-5.3,1.2-7.5,1.4c-2.2-0.2-4.7-0.7-7.5-1.4
				c-18.8-4.9-22.3-4.6-35.7,3.2c-11.8,6.2-18.5,24.1-15.2,44.3c3.9,23.3,12.9,24.9,12.9,50.2c0,25.1,9.1,37.6,16.4,37.6
				c7.3,0,11-8.6,19-30.1c5.5-14.7,13.7-17.1,20.1,0c8,21.5,11.7,30.1,19,30.1c7.3,0,16.4-12.5,16.4-37.6c0-25.2,8.9-26.6,12.9-50.2
				C212.8,120.4,206.1,102.5,194.3,96.3z"/>
		</g>
		<g>
			<path class="st1" d="M180.2,234.4c-11.9,0-16.5-12.1-24.7-34c-2-5.2-3.6-7.2-4.4-7.8c-0.7,0.6-2.5,2.6-4.4,7.8
				c-8.2,21.9-12.7,34-24.7,34c-11.2,0-22.4-15-22.4-43.7c0-13.1-2.5-18.9-5.7-26.1c-2.5-5.8-5.4-12.3-7.1-23.1
				c-3.7-22.2,3.8-43,18.3-50.6c8.3-4.8,13.6-7.1,20.7-7.1c5.1,0,10.7,1.2,19.3,3.5c2.1,0.5,4.1,0.9,6,1.2c1.9-0.2,3.9-0.6,6-1.2
				c8.5-2.3,14.2-3.5,19.3-3.5c7.2,0,12.5,2.3,20.9,7.3c14.2,7.5,21.8,28.3,18.1,50.5c-1.8,10.9-4.7,17.5-7.2,23.2
				c-3.1,7.2-5.6,12.9-5.6,25.9C202.6,219.4,191.3,234.4,180.2,234.4z M151.1,180.3c6.4,0,11.7,5.3,15.6,15.9
				c4.8,12.9,9.8,26.2,13.4,26.2c2.1,0,10.4-8.3,10.4-31.6c0-15.6,3.2-22.9,6.6-30.7c2.3-5.4,4.8-11,6.4-20.4
				c2.8-16.8-2.2-32.8-12-38c-7.8-4.5-11-5.8-15.1-5.8c-3.8,0-8.8,1.1-16.2,3.1c-2.9,0.8-5.7,1.3-8.4,1.6l-0.7,0.1l-0.7-0.1
				c-2.7-0.3-5.5-0.8-8.4-1.6c-7.4-2-12.5-3.1-16.3-3.1c-4.1,0-7.3,1.2-14.9,5.6c-10,5.3-15.1,21.3-12.3,38.1
				c1.5,9.3,4,14.9,6.3,20.2c3.3,7.5,6.7,15.3,6.7,30.9c0,23.4,8.3,31.6,10.4,31.6c3.6,0,8.6-13.3,13.4-26.2
				C140.3,183.1,146.7,180.3,151.1,180.3z"/>
		</g>
	</g>
	<g>
		<g>
			<rect x="145.1" y="4.3" class="st1" width="12" height="66.1"/>
		</g>
	</g>
	<g>
		<g>
			<rect x="145.1" y="231.2" class="st1" width="12" height="66.1"/>
		</g>
	</g>
</g>
</svg>
